<svg width="42" height="43" viewBox="0 0 42 43" fill="none" xmlns="http://www.w3.org/2000/svg">
<path d="M18.7353 0.00867376C8.20987 1.18225 0 10.3314 0 21.4445C0 33.3479 9.42614 43 21.0509 43C31.8805 43 40.8154 34.6173 41.9849 23.8395C42.1954 21.9474 40.1605 20.4385 38.3829 21.5642C36.4181 22.8575 34.0791 23.6 31.5764 23.6C24.6062 23.6 18.9458 17.804 18.9458 10.6667C18.9458 8.12793 19.6709 5.73287 20.9106 3.74497C21.9631 2.14028 20.817 -0.15898 18.7353 0.00867376Z" fill="#EFEFEF"/>
</svg>
