<svg width="51" height="51" viewBox="0 0 51 51" fill="none" xmlns="http://www.w3.org/2000/svg">
<path d="M25.5 13.9091C19.1018 13.9091 13.9091 19.1018 13.9091 25.5C13.9091 31.8982 19.1018 37.0909 25.5 37.0909C31.8982 37.0909 37.0909 31.8982 37.0909 25.5C37.0909 19.1018 31.8982 13.9091 25.5 13.9091ZM2.31818 27.8182H6.95455C8.22954 27.8182 9.27273 26.775 9.27273 25.5C9.27273 24.225 8.22954 23.1818 6.95455 23.1818H2.31818C1.04318 23.1818 0 24.225 0 25.5C0 26.775 1.04318 27.8182 2.31818 27.8182ZM44.0455 27.8182H48.6818C49.9568 27.8182 51 26.775 51 25.5C51 24.225 49.9568 23.1818 48.6818 23.1818H44.0455C42.7705 23.1818 41.7273 24.225 41.7273 25.5C41.7273 26.775 42.7705 27.8182 44.0455 27.8182ZM23.1818 2.31818V6.95455C23.1818 8.22954 24.225 9.27273 25.5 9.27273C26.775 9.27273 27.8182 8.22954 27.8182 6.95455V2.31818C27.8182 1.04318 26.775 0 25.5 0C24.225 0 23.1818 1.04318 23.1818 2.31818ZM23.1818 44.0455V48.6818C23.1818 49.9568 24.225 51 25.5 51C26.775 51 27.8182 49.9568 27.8182 48.6818V44.0455C27.8182 42.7705 26.775 41.7273 25.5 41.7273C24.225 41.7273 23.1818 42.7705 23.1818 44.0455ZM11.5677 8.29909C10.6636 7.395 9.18 7.395 8.29909 8.29909C7.395 9.20318 7.395 10.6868 8.29909 11.5677L10.7564 14.025C11.6605 14.9291 13.1441 14.9291 14.025 14.025C14.9059 13.1209 14.9291 11.6373 14.025 10.7564L11.5677 8.29909ZM40.2436 36.975C39.3395 36.0709 37.8559 36.0709 36.975 36.975C36.0709 37.8791 36.0709 39.3627 36.975 40.2436L39.4323 42.7009C40.3364 43.605 41.82 43.605 42.7009 42.7009C43.605 41.7968 43.605 40.3132 42.7009 39.4323L40.2436 36.975ZM42.7009 11.5677C43.605 10.6636 43.605 9.18 42.7009 8.29909C41.7968 7.395 40.3132 7.395 39.4323 8.29909L36.975 10.7564C36.0709 11.6605 36.0709 13.1441 36.975 14.025C37.8791 14.9059 39.3627 14.9291 40.2436 14.025L42.7009 11.5677ZM14.025 40.2436C14.9291 39.3395 14.9291 37.8559 14.025 36.975C13.1209 36.0709 11.6373 36.0709 10.7564 36.975L8.29909 39.4323C7.395 40.3364 7.395 41.82 8.29909 42.7009C9.20318 43.5818 10.6868 43.605 11.5677 42.7009L14.025 40.2436Z" fill="#EFEFEF"/>
</svg>
